<?xml version="1.0" encoding="utf-8"?>
<!-- Generator: Adobe Illustrator 14.0.0, SVG Export Plug-In . SVG Version: 6.00 Build 43363)  -->
<!DOCTYPE svg PUBLIC "-//W3C//DTD SVG 1.1//EN" "http://www.w3.org/Graphics/SVG/1.1/DTD/svg11.dtd">
<svg version="1.1"  xmlns="http://www.w3.org/2000/svg" xmlns:xlink="http://www.w3.org/1999/xlink" x="0px" y="0px"
	 width="15.969px" height="16px" viewBox="0 0 15.969 16" enable-background="new 0 0 15.969 16" xml:space="preserve">
<g>
	<g>
		<path fill-rule="evenodd" clip-rule="evenodd" fill="#8C9194" d="M14.985,13.023l-3.712-3.729c0.426-0.782,0.668-1.68,0.668-2.635
			c0-3.039-2.453-5.504-5.479-5.504c-3.025,0-5.479,2.465-5.479,5.504c0,3.04,2.453,5.504,5.479,5.504
			c0.975,0,1.888-0.259,2.681-0.707l3.702,3.718L14.985,13.023z M6.462,9.188c-1.39,0-2.516-1.131-2.516-2.527
			c0-1.396,1.126-2.527,2.516-2.527S8.979,5.265,8.979,6.66C8.979,8.057,7.852,9.188,6.462,9.188z"/>
	</g>
</g>
</svg>
